module_test.vcd
$date
	Tue May 23 12:20:10 2023
$end
$version
	Icarus Verilog
$end
$timescale
	1ps
$end
$scope module module_test $end
$var wire 8 ! program_count [7:0] $end
$var wire 9 " instruction [8:0] $end
$var wire 16 # data_var [15:0] $end
$var reg 1 $ Clkin $end
$var reg 1 % Reset $end
$var reg 1 & Rout $end
$var reg 4 ' count [3:0] $end
$var reg 3 ( sel_reg_out [2:0] $end
$var reg 1 ) step $end
$scope module p_count $end
$var wire 1 % rst $end
$var wire 1 ) step $end
$var reg 8 * address_out [7:0] $end
$upscope $end
$scope module program1 $end
$var wire 1 $ clk $end
$var wire 8 + read_address [7:0] $end
$var reg 16 , data_var [15:0] $end
$var reg 9 - instruction [8:0] $end
$upscope $end
$upscope $end
$enddefinitions $end
#0
$dumpvars
bx -
bx ,
b0 +
b0 *
x)
b0 (
b0 '
1&
1%
x$
bx #
bx "
b0 !
$end
#50000
0%
#150000
0)
0$
#250000
b1 !
b1 *
b1 +
b101 #
b101 ,
b0 "
b0 -
b1 (
b1 '
1)
1$
#400000
0)
0$
#500000
b10 !
b10 *
b10 +
b10 (
b10 '
b100 #
b100 ,
b1000 "
b1000 -
1)
1$
#650000
0)
0$
#750000
b11 !
b11 *
b11 +
b0 #
b0 ,
b10001000 "
b10001000 -
b11 (
b11 '
1)
1$
#900000
0)
0$
#1000000
b100 !
b100 *
b100 +
b100 (
b100 '
b1110000 "
b1110000 -
1)
1$
#1150000
0)
0$
#1250000
b101 !
b101 *
b101 +
b11110001 "
b11110001 -
b101 (
b101 '
1)
1$
#1400000
0)
0$
#1500000
b110 !
b110 *
b110 +
b110 (
b110 '
b100000000 "
b100000000 -
1)
1$
#1650000
0)
0$
#1750000
b111 !
b111 *
b111 +
b111 (
b111 '
1)
1$
#1900000
0)
0$
#2000000
b1000 !
b1000 *
b1000 +
b0 (
b1000 '
1)
1$
#2150000
0)
0$
#2250000
b1001 !
b1001 *
b1001 +
b1 (
b1001 '
1)
1$
#2400000
0)
0$
#2500000
b1010 !
b1010 *
b1010 +
b10 (
b1010 '
1)
1$
#2650000
0)
0$
#2750000
b1011 !
b1011 *
b1011 +
b11 (
b1011 '
1)
1$
#2900000
0)
0$
#3000000
b1100 !
b1100 *
b1100 +
b100 (
b1100 '
1)
1$
#3150000
0)
0$
#3250000
b1101 !
b1101 *
b1101 +
b101 (
b1101 '
1)
1$
#3400000
0)
0$
#3500000
b1110 !
b1110 *
b1110 +
b110 (
b1110 '
1)
1$
#3650000
0)
0$
#3750000
b1111 !
b1111 *
b1111 +
b111 (
b1111 '
1)
1$
#3900000
0)
0$
#4000000
b10000 !
b10000 *
b10000 +
b0 (
b0 '
1)
1$
#4150000
0)
0$
#4250000
b10001 !
b10001 *
b10001 +
b1 (
b1 '
1)
1$
#4400000
0)
0$
#4500000
b10010 !
b10010 *
b10010 +
b10 (
b10 '
1)
1$
#4650000
0)
0$
#4750000
b10011 !
b10011 *
b10011 +
b11 (
b11 '
1)
1$
#4900000
0)
0$
#5000000
b10100 !
b10100 *
b10100 +
b100 (
b100 '
1)
1$
#5150000
0)
0$
#5250000
b10101 !
b10101 *
b10101 +
b101 (
b101 '
1)
1$
#5400000
0)
0$
#5500000
b10110 !
b10110 *
b10110 +
b110 (
b110 '
1)
1$
#5650000
0)
0$
#5750000
b10111 !
b10111 *
b10111 +
b111 (
b111 '
1)
1$
#5900000
0)
0$
#6000000
b11000 !
b11000 *
b11000 +
b0 (
b1000 '
1)
1$
#6150000
0)
0$
#6250000
b11001 !
b11001 *
b11001 +
b1 (
b1001 '
1)
1$
#6400000
0)
0$
#6500000
b11010 !
b11010 *
b11010 +
b10 (
b1010 '
1)
1$
#6650000
0)
0$
#6750000
b11011 !
b11011 *
b11011 +
b11 (
b1011 '
1)
1$
#6900000
0)
0$
#7000000
b11100 !
b11100 *
b11100 +
b100 (
b1100 '
1)
1$
#7150000
0)
0$
#7250000
b11101 !
b11101 *
b11101 +
b101 (
b1101 '
1)
1$
#7400000
0)
0$
#7500000
b11110 !
b11110 *
b11110 +
b110 (
b1110 '
1)
1$
#7650000
0)
0$
#7750000
b11111 !
b11111 *
b11111 +
b111 (
b1111 '
1)
1$
#7900000
0)
0$
#8000000
b100000 !
b100000 *
b100000 +
b0 (
b0 '
1)
1$
#8150000
0)
0$
#8250000
b100001 !
b100001 *
b100001 +
b1 (
b1 '
1)
1$
#8400000
0)
0$
#8500000
b100010 !
b100010 *
b100010 +
b10 (
b10 '
1)
1$
#8650000
0)
0$
#8750000
b100011 !
b100011 *
b100011 +
b11 (
b11 '
1)
1$
#8900000
0)
0$
#9000000
b100100 !
b100100 *
b100100 +
b100 (
b100 '
1)
1$
#9150000
0)
0$
#9250000
b100101 !
b100101 *
b100101 +
b101 (
b101 '
1)
1$
#9400000
0)
0$
#9500000
b100110 !
b100110 *
b100110 +
b110 (
b110 '
1)
1$
#9650000
0)
0$
#9750000
b100111 !
b100111 *
b100111 +
b111 (
b111 '
1)
1$
#9900000
0)
0$
#10000000
b101000 !
b101000 *
b101000 +
b0 (
b1000 '
1)
1$
